1000	126000	1
2000	576000	0
3000	8424000	131
4000	8360000	135
5000	22805000	363
6000	26208000	448
7000	12950000	216
8000	56416000	914
9000	72216000	1134
10000	62460000	986
11000	29601000	454
12000	32640000	519
13000	221000	0
14000	122570000	1952
15000	75120000	1187
16000	64608000	1015
17000	137037000	2189
18000	177264000	2822
19000	113962000	1804
20000	213460000	3355
21000	22575000	368
22000	97900000	1590
23000	185081000	3109
24000	240672000	4066
25000	594800000	10077
26000	173706000	2879
27000	111915000	1751
28000	137396000	2223
29000	10962000	183
30000	128580000	2074
31000	44640000	701
32000	75680000	1187
33000	820875000	12958
34000	975902000	15372
35000	251440000	3945
36000	555192000	8761
37000	444185000	6997
38000	650408000	10218
39000	177723000	2781
40000	1337600000	21100
41000	588268000	9272
42000	1757868000	27805
43000	1683665000	26771
44000	21296000	338
45000	445905000	6966
46000	249504000	3922
47000	489881000	7772
48000	945888000	15129
49000	388815000	6129
50000	180550000	2828
