1000	347000	0
2000	978000	15
3000	7752000	137
4000	3676000	64
5000	4780000	71
6000	18390000	282
7000	37849000	611
8000	43520000	732
9000	63234000	1033
10000	67210000	1162
11000	77000	0
12000	14556000	232
13000	102063000	1677
14000	93814000	1499
15000	66555000	1087
16000	55024000	901
17000	111367000	1782
18000	224280000	3522
19000	89205000	1404
20000	86600000	1372
21000	110334000	1744
22000	286946000	4531
23000	222295000	3592
24000	410160000	6661
25000	477400000	7719
26000	28860000	448
27000	375975000	6216
28000	328776000	5378
29000	269352000	4308
30000	108180000	1776
31000	441037000	6985
32000	106560000	1740
33000	286704000	4577
34000	566406000	8965
35000	54985000	864
36000	344016000	5450
37000	913641000	14711
38000	585998000	9360
39000	22815000	354
40000	682400000	10817
41000	942795000	14917
42000	762510000	12035
43000	758004000	12048
44000	523820000	8412
45000	106695000	1655
46000	195914000	3107
47000	1821109000	28852
48000	902544000	14197
49000	550221000	8847
50000	631200000	10359
