1000	277326	0
2000	801788	15
3000	1702117	16
4000	3436927	16
5000	3022969	16
6000	5485737	38
7000	9406612	62
8000	6048034	47
9000	13491297	100
10000	11008279	83
11000	16399864	122
12000	16943951	116
13000	20471580	163
14000	14563900	100
15000	19308403	135
16000	18236875	138
17000	22447155	170
18000	22665492	184
19000	29799181	231
20000	31760983	231
21000	32307883	238
22000	37324775	280
23000	47913254	370
24000	10071340	78
25000	28843827	219
26000	49206303	370
27000	30527699	231
28000	66247323	501
29000	61870810	468
30000	45606630	354
31000	61923685	471
32000	40141001	302
33000	90465031	799
34000	55223993	417
35000	80514810	601
36000	51201338	386
37000	78851286	615
38000	54666554	405
39000	75438316	586
40000	45006495	355
41000	85654341	665
42000	94844856	733
43000	92799667	701
44000	45323826	352
45000	108467138	863
46000	97739513	748
47000	96895248	749
48000	66214090	502
49000	83733757	627
