1000	341179	1
2000	1017677	0
3000	2261597	15
4000	1763572	16
5000	2844194	22
6000	7703528	69
7000	8061188	63
8000	7384445	63
9000	4775776	38
10000	11246843	88
11000	9503458	78
12000	10664788	85
13000	13383803	100
14000	20794634	153
15000	15764094	124
16000	37079482	285
17000	29213637	232
18000	22563025	171
19000	21683984	184
20000	24306263	169
21000	30071542	232
22000	21034569	153
23000	35250688	264
24000	30256652	232
25000	41670288	316
26000	41843676	332
27000	32248544	247
28000	62504702	508
29000	24270833	170
30000	35537717	263
31000	67991623	533
32000	40002786	300
33000	53157986	426
34000	70492701	540
35000	88646968	667
36000	46940994	348
37000	91635316	687
38000	49093434	379
39000	101495541	769
40000	98892900	749
41000	74928047	571
42000	102485435	786
43000	76526581	579
44000	121930330	924
45000	114341840	870
46000	103489997	802
47000	112819586	868
48000	96594398	733
49000	129703190	982
50000	130186203	1094
51000	138348112	1039
52000	141139387	1071
53000	153030468	1149
54000	94253178	713
55000	113982786	856
56000	89385364	675
57000	152040859	1166
58000	134825284	1111
